Denumire client,CIF,Reg com,Cod client/ID,Adresa,Localitate,Judet,Banca,Iban,Tara,Email,Pers contact/Sponsor,ID Sponsor,Telefon
Gyorfi Erika,-,,RO001,Str. Cernei Nr. 20,Tg. Mures,Mures,BANCA TRANSILVANIA,RO40BTRL02701201646884XX,Romania,erikagyorfi@yahoo.com,SRL,RO000,0744750265
TAMAS MARIUS PFA,22581770,,RO002,Aleea Trei Ape  nr.3   Sc.b  Et.p  Ap.4,Resita,Caras-Severin,BANCA TRANSILVANIA,RO09BTRL01101202W52238XX,Romania,mariustam@yahoo.com,Gyorfi Erika,RO001,0722242137
Gyorfi Istvan,-,,RO003,Str. Cernei Nr. 20,Tg. Mures,Mures,BANCA TRANSILVANIA,RO98BTRLRONCRT0011307802,Romania,istvangyorfi56@yahoo.com,Gyorfi Erika,RO001,0749332928
Jenei Miklos Csaba,-,,RO004,"Ale. Covasna nr.11, ap.3",Tg.Mures,Mures,BANCA TRANSILVANIA,RO48BTRLRONCRT00A4944702,Romania,csabixp@gmail.com,Gyorfi Erika,RO001,0744660642
PETREA LAURENTIU,-,,RO005,"Bld. Independentei nr.33, bl.33, sc.1, et.1, ap.4",Focsani,Vrancea,RAIFFEISEN BANK,RO95RZBR0000060007378637,Romania,laurentiu.petrea11@gmail.com,Gyorfi Erika,RO001,0722355238
Rimniceanu Costel,-,,RO006,Str. Girlasi nr. 11 A,Buzau,Buzau,BANCA TRANSILVANIA,RO78BTRL01001201306617XX,Romania,costelrimniceanu@gmail.com,Gyorfi Erika,RO001,0744499026
Sidor Lidia-Dana,-,,RO007,Aleea Nucului nr.8,Bistrita,Bistrita-Nasaud,BANCA TRANSILVANIA,RO97BTRL00601201342489XX,Romania,dana.sidor@yahoo.com,Gyorfi Erika,RO001,0746192203
Parseghian Constantin,-,,RO008,str.Drobeta nr.42,Craiova,Dolj,ING BANK NV,RO77INGB0000999903073358,Romania,parseghianc@yahoo.com,Tamas Marius,RO002,0745254547
MEDICINA VIBRATIONALA SRL,41091979,,RO009,Str. Intrarea Dridu nr.5,Bucuresti,Bucuresti,BANCA TRANSILVANIA,RO69BTRLRONCRT0498485101,Romania,contact@medicinavibrationala.ro,Tamas Marius,RO002,0786203341
Voican Tatiana Elena,-,,RO010,Strada B. P. Ha?deu Nr. 42,Craiova,Dolj,,,Romania,tatianaelena2017@yahoo.com,Tamas Marius,RO002,0745369291
Ragabeja Monica Adriana,-,,RO011,Str.,Bucuresti,Bucuresti,,,Romania,ragabeja.monica@yahoo.com,Tamas Marius,RO002,0747057121
Florea Ion,-,,RO012,"BDUL. DACIA BL. 83B, SC.2, ET.1, AP.7",Craiova,Dolj,BANCA TRANSILVANIA,RO68BTRLRONCRT00L4969502,Romania,danstef1972@yahoo.com,Tamas Marius,RO002,0729884475
MOLIN MIRCEA,-,,RO013,Calea Caransebesului Bl.19 Sc.A Ap.23,RESITA,Caras Severin,,,Romania,mirceamolin@yahoo.com,Tamas Marius,RO002,0751193266
Mihalcea Ion-Razvan,-,,RO014,"Str. Alunisului, nr.3, bl.12C, sc.3, et.6, ap.101, sect.4",Bucuresti,Bucuresti,,,Romania,razvanmihalcea73@yahoo.com,Tamas Marius,RO002,0727220080
Kolozsvari Sandor Levente,-,,RO015,"Str. Vanatorului nr.17-19, bl.C2, ap.29",Cluj-Napoca,Cluj,BANCA TRANSILVANIA,RO23BTRL01301201G22101XX,Romania,kolozsvaris@yahoo.fr,Gyorfi Istvan,RO003,0745661313
BANICI GEORGETA,-,,RO016,Str. Cernei Nr. 20,Tg. Mure?,Mures,Banca Comerciala Romana,RO75RNCB0188034684030001,Romania,gbanici@gmail.com,Gyorfi Erika,RO001,0728461743
Imre Eniko,-,,RO017,"str. Frumoasa nr.44, cp 545600",Tarnaveni,Mures,BANCA TRANSILVANIA,RO89BTRL02701201A11818XX,Romania,imre.eniko@yahoo.com,Jenei Miklos Csaba,RO004,0730619921
Ardelean Claudiu Emanuel,-,,RO018,Str. Principala nr. 92,Chinari,Mures,,,Romania,claudiu_rdln@yahoo.com,Jenei Miklos Csaba,RO004,0731230721
Jenei Gabriella,-,,RO019,"Ale. Covasna nr.11, ap.3",Tg.Mures,Mures,BANCA TRANSILVANIA,RO66BTRL02701201D63392XX,Romania,lyogabi29@gmail.com,Jenei Miklos Csaba,RO004,0754688235
Boldizsar Attila,-,,RO020,Str. Dealul Viilor Unomaj Nr. 25,Tg.Mures,Mures,,,Romania,boldizsarattila1965@gmail.com,Jenei Miklos Csaba,RO004,0744669288
Jenei Edmond,-,,RO021,"Ale. Covasna nr.11, ap.3",Tg.Mures,Mures,BANCA TRANSILVANIA,RO15BTRLRONCRT0269141601,Romania,rodinia@gmail.hu,Jenei Miklos Csaba,RO004,0757177736
Badea Valentin,-,,RO022,"cartier Brosteni, bl.E4, et.3, ap.15",Buzau,Buzau,,,Romania,valentinbadea1969@gmail.com,Rimniceanu Costel,RO006,0744499077
Minzat Sabina,-,,RO023,Str. Bradului nr.15,Bistrita,Bistrita-Nasaud,,,Romania,sabinaminzat@yahoo.com,Sidor Lidia-Dana,RO007,0752016014
Ungureanu Daniel Catalin,-,,RO024,str. Dezrobirii nr. 7 bl. G3 sc. 1 et. 4 ap. 29,Craiova,Dolj,,,Romania,tyany.impex@gmail.com,Parseghian Constantin,RO008,0770684904
Botescu Adrian,-,,RO025,"CALEA BUCURE?TI, NR.91, BL.A12, SC.4, AP.10, COD PO?TAL 200473",Craiova,Dolj,BANCA TRANSILVANIA,RO52BTRL01701201386368XX,Romania,a.botescu1967@gmail.com,Parseghian Constantin,RO008,0723143267
MARGARITESCU CLAUDIU,-,,RO026,"STR. VASILE ALECSANDRI, NR. 36",CRAIOVA,Dolj,BANCA TRANSILVANIA,RO64BTRLRONCRT0V59455402,Romania,c_margaritescu2000@yahoo.com,Parseghian Constantin,RO008,0740152550
COTET CRINEL,-,,RO027,"Strada Hipodrom nr 32, bloc B2, sc. 1, etaj 2, Ap 10",Braila,Braila,BANCA TRANSILVANIA,RO10BTRLRONCRT0294946601,Romania,crinel.cotet@yahoo.com,Parseghian Constantin,RO008,0788238775
MARINESCU MAGDALENA GABRIELA,-,,RO028,"Str. Ion Minulescu,  nr.31, Bl. CS1, Sc. A, AP.31, COD PO?TAL 110324",PITE?TI,Arges,ING BANK NV,RO48INGB0000999900180952,Romania,madymarinescu@yahoo.com,Parseghian Constantin,RO008,0770975387
TUDOR CONSTANTIN,-,,RO029,"Calea Bucuresti, nr.55, bl.31A, sc.1, ap.19",Craiova,Dolj,,,Romania,ctudor03@gmail.com,Parseghian Constantin,RO008,0760137555
Cubici Valentin,-,,RO030,"str. Jean Monnet nr. 3, sc. A, ap. 1, sect.1",Bucuresti,Bucuresti,BANCA TRANSILVANIA,RO23BTRLRONCRT0212517901,Romania,valentin.cubici@gmail.com,Medicina Vibrationala SRL,RO009,0744387753
Bocanu Ion Liviu,-,,RO031,"Str. Popa Sapca nr.11, bl. P2, sc. A, ap.6, cp 110148",Pitesti,Arges,,,Romania,liviuly@yahoo.com,Medicina Vibrationala SRL,RO009,0742111876
Stan Constanta Sorina,-,,RO032,"Strada Brasov 24, bl.717, sc.A, ap 23, sect.6, cp 061449",Bucuresti,Bucuresti,ING BANK NV,RO72INGB0000999900030170,Romania,aniros_70@yahoo.com,Medicina Vibrationala SRL,RO009,0723364502
Mihai Sabin,-,,RO033,Str. TUDOR VLADIMIRESCU NR.35,Craiova,Dolj,BANCA TRANSILVANIA,RO77BTRL01701201T52633XX,Romania,m_5abin@yahoo.com,Florea Ion,RO012,0722707979
Preotu Gheorghe,-,,RO034,Str. Stefan cel Mare Nr. 86,Craiova,Dolj,,,Romania,previmetcraiova@yahoo.com,Florea Ion,RO012,0744331999
IVASCU CRISTINA,-,,RO035,"B-dul 1Mai, bl.D11,sc.1, ap.9, et.2, cp 200376",Craiova,Dolj,,,Romania,crisyva@gmail.com,Florea Ion,RO012,0722773803
Florea Robert-Alin,-,,RO036,Ale.Arh.Duiliu Marcu nr.9 bl.12 sc.1 ap.18,Craiova,Dolj,,,Romania,alinrobert678@yahoo.com,Florea Ion,RO012,0762594507
STEFANESCU CARMEN CRISTINA,-,,RO037,Str.Horia nr.3 bl.a8 sc.2 et.1 ap.8,Craiova,Dolj,,,Romania,carmen_florea@yahoo.com,Florea Ion,RO012,0771538512
Antochi Floarea,-,,RO038,"Str. Bucuresti nr.100, bl.704C, sc.A, ap.4",Alexandria,Teleorman,,,Romania,ionflorea1936@gmail.com,Florea Ion,RO012,0762295098
Jivan Ioan,-,,RO039,Str. Terovei nr.6,Resita,Caras Severin,,,Romania,nelu.jivan53@gmail.com,MOLIN MIRCEA,RO013,0722705039
PUSCAS LILIEANA,-,,RO040,"Str. Sarmisegetuza bl.7, sc.1, ap.13 cp 320071",Resita,Caras Severin,,,Romania,puscaslilieana@gmail.com,MOLIN MIRCEA,RO013,0761639759
Kolozsvari Alexandru,-,,RO041,"Str. Vanatorului nr.17-19, bl.C2, ap.29",Cluj-Napoca,Cluj,BANCA TRANSILVANIA,RO93BTRLRONCRT00J0258302,Romania,k_alexandru@yahoo.com,Kolozsvari Sandor Levente,RO015,0741116402
Kolozsvari Andrei Stefan,-,,RO042,"Str. Vanatorului nr.17-19, bl.C2, ap.29",Cluj-Napoca,Cluj,BANCA TRANSILVANIA,RO41BTRL01301201J02783XX,Romania,k_andrei2004@yahoo.com,Kolozsvari Sandor Levente,RO015,0742625027
Szucs Pap Adalbert Atila,-,,RO043,"Str. Gheorghe Dima nr.39, bl. I4, sc.1, ap.2",Cluj-Napoca,Cluj,BANCA TRANSILVANIA,RO55BTRL06601201S98429XX,Romania,szucsalbert@yahoo.com,Kolozsvari Sandor Levente,RO015,0741189008
Valean Vasile,-,,RO044,Str. Scolii nr. 11,Sannicoara,Cluj,,,Romania,vasilewalean@gmail.com,Kolozsvari Sandor Levente,RO015,0722551556
Majorovits Zoltan Ioan,-,,RO045,"Str. Veteranilor , nr. 2",F?g?ra?,Brasov,BANCA TRANSILVANIA,RO69BTRL00801201187238XX,Romania,zoli_zim@yahoo.com,Imre Eniko,RO017,0723205437
Juga Agota,-,,RO046,str. Scolii nr.12,Tarnaveni,Mures,BANCA TRANSILVANIA,RO03BTRL02701201A81054XX,Romania,juga_agota@yahoo.com,Imre Eniko,RO017,0724318289
Pop Ioana Simona,-,,RO047,"Str. Armatei, nr. 102",Tarnaveni,Mures,Banca Transilvania,RO86BTRL02701201964273XX,Romania,pop.ioana74@yahoo.com,Imre Eniko,RO017,+393661645820
Gaspar Hajnal Ildiko,-,,RO048,"cartier George Enescu 2/A, ap.8",Tarnaveni,Mures,BANCA TRANSILVANIA,RO46BTRLRONCRT0275457101,Romania,gaspar.hajnal@yahoo.com,Imre Eniko,RO017,0740374436
Tocaciu Maria,-,,RO049,Str,Nazna,Mures,BANCA COMERCIALA ROMANA,RO44RNCB0009023847300001,Romania,adinastefania19@gmail.com,Imre Eniko,RO017,0754758228
Imre Andrea,-,,RO050,"str. Frumoasa nr.44, cp 545600",Tarnaveni,Mures,BANCA TRANSILVANIA,RO43BTRL02701201I30105XX,Romania,andrea_andy_7@yahoo.com,Imre Eniko,RO017,0727098396
Imre Stefan,-,,RO051,"str. Frumoasa nr.44, cp 545600",Tarnaveni,Mures,BANCA TRANSILVANIA,RO12BTRL02701201A81036XX,Romania,imre.stefan48@gmail.com,Imre Eniko,RO017,0731016650
Petru Adrian Ioan,-,,RO052,"str. 1 Decembrie 1918, Bl 26, sc A, ap 5",Tarnaveni,Mures,BANCA COMERCIALA ROMANA,RO41RNCB0194023921900004,Romania,petruadrian79@gmail.com,Imre Eniko,RO017,0745178209
Serbu Ildiko,-,,RO053,"cartier 1 Decembrie 1918, Bl 46 N, sc A, ap 21",Tarnaveni,Mures,,,Romania,serbuildiko@gmail.com,Imre Eniko,RO017,0749313505
Boar Elena,-,,RO054,str. Cooperatiei nr.3 B,Tarnaveni,Mures,,,Romania,boarelena@yahoo.com,Imre Eniko,RO017,0741195444
SMARANDA SILVICA,-,,RO055,"Str. Romul nr.5A, bl.B2, sc.1, ap.1",Craiova,Dolj,BANCA TRANSILVANIA,RO28BTRL01701201I11138XX,Romania,s.silyon@gmail.com,Botescu Adrian,RO025,0766589336
Botescu Amalia,-,,RO056,"CALEA BUCURESTI, NR.91, BL.A12, SC.4, AP.10, COD POSTAL 200473",Craiova,Dolj,BANCA TRANSILVANIA,RO95BTRL01701201P53248XX,Romania,amaliabotescu@gmail.com,Botescu Adrian,RO025,0729098373
Botescu Serban-Terentiu,-,,RO057,"STR. LT. BECHERESCU NR.6, COD POSTAL 205100",B?ile?ti,Dolj,BANCA COMERCIALA ROMANA,RO69RNCB0135018941720011,Romania,serban.t.b.1940@gmail.com,Botescu Adrian,RO025,0725697545
Fertu Cristinel,-,,RO058,"Ale. Cinematografului nr.2, bl.H3, sc.1, ap.13",Braila,Braila,,,Romania,cristi_fertu@yahoo.com,Cotet Crinel,RO027,0745182271
TUDOR GIANI-DAN,-,,RO059,"Calea Bucuresti, nr.55, bl.31A, sc.1, ap.19",Craiova,Dolj,,,Romania,tudor.gd@gmail.com,Tudor Constantin,RO029,0760999147
TUDOR MIRELA,-,,RO060,"Calea Bucuresti, nr.55, bl.31A, sc.1, ap.19",Craiova,Dolj,,,Romania,tudorm76@yahoo.com,Tudor Constantin,RO029,0762650019
Cubici Bogdan-Ionut,-,,RO061,"Str. Cristescu Dima nr. 4, bl. 215, ap. 43, sect.2",Bucuresti,Bucuresti,,,Romania,cubicibogdan@gmail.com,Cubici Valentin,RO030,0726874186
Manolescu Dan,-,,RO062,Al. Virgil Tempeanu nr.2,Pitesti,Arges,,,Romania,manolescu_dan2000@yahoo.com,Bocanu Ion Liviu,RO031,0740012070
Ghealdir Nutu-Ovidiu,-,,RO063,Str. Primaverii nr.2,Craiova,Dolj,BRD - GROUPE SOCIETE GENERALE,RO70BRDE170SV04142691700,Romania,ovy30@yahoo.com,Mihai Sabin,RO033,0723596060
Voinea Camelia,-,,RO064,Str,Brabova,Dolj,,,Romania,cameliavoinea01@gmail.com,Mihai Sabin,RO033,0765505504
Valeanu Mariana,-,,RO065,Str Gheorghe Baritiu nr.13B,Craiova,Dolj,CEC BANK,RO41CECEC001946320489511,Romania,mari140462@gmail.com,Mihai Sabin,RO033,0762281282
Lacusta Ilarion,-,,RO066,"Str. Gral. Constantin Argetoianu nr.23, Bl. A16 sc.1, ap.1",Craiova,Dolj,BANCA TRANSILVANIA,RO96BTRL01701201M44689XX,Romania,lacusta.ilarion@yahoo.com,Mihai Sabin,RO033,0722242413
Mihai Iustin,-,,RO067,"Str. Sold. Stefan Constantin nr.19B et2, ap.16",Bucuresti,Bucuresti,BANCA COMERCIALA ROMANA,RO22RNCB0849129555970001,Romania,mihai.iustin@yahoo.ro,Mihai Sabin,RO033,0726931903
Trica Ion,-,,RO068,Str. Sfintii apostoli nr.86A,Craiova,Dolj,BANCA TRANSILVANIA,RO22BTRLRONCRT00I7924402,Romania,ion_trica@yahoo.com,Mihai Sabin,RO033,0766731349
Buca Marian,-,,RO069,Str. Petre Pandrea nr.59,Bals,Dolj,,,Romania,marianbuca@yahoo.com,Mihai Sabin,RO033,0728980486
Coman Livia Eliza,-,,RO070,str. Leandrului nr.8,Craiova,Dolj,CEC BANK,RO87CECEC001946202141311,Romania,claudiu_c2003@yahoo.com,Mihai Sabin,RO033,0763835834
Balasa Ioana Alexandra,-,,RO071,str. Fragilor nr.2,Craiova,Dolj,BANCA TRANSILVANIA,RO77BTRLRONCRT0343969001,Romania,oana202001@yahoo.com,Mihai Sabin,RO033,0766475946
Vasile Marin,-,,RO072,"Str. Ion Tuculescu nr.13, bl.V6 ap.15",Craiova,Dolj,,,Romania,marian_vlas@yahoo.ca,Mihai Sabin,RO033,0740035448
Vasilache George,-,,RO073,Str. Tabaci nr.22,Craiova,Dolj,,,Romania,gvasilache56@yahoo.com,Mihai Sabin,RO033,0744612854
Dudau Mihai-Stelian,-,,RO074,"Strada Calea Unirii, nr. 61",Craiova,Dolj,,,Romania,dudau_mihai2002@yahoo.com,Preotu Gheorghe,RO034,0747085861
Preotu Liliana-Natalia,-,,RO075,"Stada Stefan cel Mare, nr. 86",Craiova,Dolj,,,Romania,dudau_iliana2002@yahoo.com,Preotu Gheorghe,RO034,0722702999
Trita Florentina-Simona,-,,RO076,"Strada Tineretului, nr. 18 E, bl C2, SC 2, et 2, ap 11",Craiova,Dolj,,,Romania,floripreotu@gmail.com,Preotu Gheorghe,RO034,0765041397
Istrate Georgeta,-,,RO077,"STR. VICTORIEI, BLOC 1, SCARA C, AP7, 230008",Slatina,Olt,,,Romania,geta.istrate@yahoo.com,Ivascu Cristina,RO035,0740048366
PIRVULESCU DIANA,-,,RO078,"Str.CAZARMII,NR 29, BL 8, SC B, AP. 14, et. 4, cp 230107",Slatina,Olt,,,Romania,diana.pirvulescu@yahoo.com,Ivascu Cristina,RO035,0730365447
Barboianu Gabriela Claudia,-,,RO079,"Str. CEAHLAULUI NR 10, cp 200638",Craiova,Dolj,,,Romania,gabrielabarboianu@gmail.com,Ivascu Cristina,RO035,0762779051
Szenes Bernadett,-,,RO080,Strada Solidarit??ii nr. 10,Satu Mare,Satu Mare,,,Romania,szenesdetti@yahoo.com,Kolozsvari Alexandru,RO041,0745875180
Papp Gyorgy,-,,RO081,Str. Sandulesti nr. 114 b,Turda,Cluj,,,Romania,gypapp@yahoo.com,Kolozsvari Alexandru,RO041,0740025653
Botoroaga Monica-Corina,-,,RO082,"Str. Doinei nr.9, sc.D, ap.18",Cugir,Alba,BANCA TRANSILVANIA,RO57BTRLRONCRT0571184101,Romania,botoroagamonica@gmail.com,Kolosvari Sandor Levente,RO015,0767774141
SOIT IOAN VASILE,-,,RO083,Str. Petru Dobra nr.10,Zlatna,Alba,,,Romania,soit_vasile@yahoo.com,Kolozsvari Alexandru,RO041,0745542532
Kolozsvari Andrei,-,,RO084,Str Principal? nr.17E,Sat Mociu,Cluj,BANCA TRANSILVANIA,RO96BTRL01301201N89807XX,Romania,kolozsvariandrei@yahoo.com,Kolozsvari Alexandru,RO041,0744632899
Szanto Szabolcs Bela,-,,RO085,"B-dul 1848 nr.11, ap.24",Tg.Mures,Mures,,,Romania,szantoszabolcs@yahoo.com,Kolozsvari Sandor Levente,RO015,+447466279266
Robu Ciprian,-,,RO086,"Str. Sub Cetate nr.230, ap.14",Floresti,Cluj,,,Romania,ciprianrobu@icloud.com,Kolozsvari Andrei Stefan,RO042,0751037161
Sipos Alexandru,-,,RO087,Str. V. Alecsandri nr.3,Dej,Cluj,,,Romania,bejsiposalex64@yahoo.com,Kolozsvari Andrei Stefan,RO042,0743167477
Szucs Pap Albert,-,,RO088,"Str. Gheorghe Dima nr.39, bl. I4, sc.1, ap.2",Cluj-Napoca,Cluj,BANCA TRANSILVANIA,RO52BTRL06601201M34276XX,Romania,albisz@yahoo.com,Szucs Pap Adalbert Atila,RO043,0753887450
Szucs Pap Erzsebet,-,,RO089,"Str. Gheorghe Dima nr.39, bl. I4, sc.1, ap.2",Cluj-Napoca,Cluj,BANCA TRANSILVANIA,RO54BTRLRONMFRT0U0484801,Romania,elizaszp_25@yahoo.com,Szucs Pap Adalbert Atila,RO043,0749539072
Valeriu Mircea,-,,RO090,"Str. 1 Decembrie 1918, bl. 57 , sc. A, et. 1,  ap. 4",Fagaras,Brasov,BANCA TRANSILVANIA,RO90BTRL00801201N01702XX,Romania,mirceavaleriu51@yahoo.com,Majorovits Zoltan Ioan,RO045,0742217475
Dobreanu Rares Mihai Eugen,-,,RO091,"Str. 13 Decembrie , Bl. 17 B , Ap. 16, cp 505200",Fagaras,Brasov,,,Romania,dobreanurares@gmail.com,Majorovits Zoltan Ioan,RO045,0784059840
Herinean Corina,-,,RO092,"str. 1 Decembrie, bl.3, sc. C, sp.29",Bistrita,Bistrita-Nasaud,BANCA TRANSILVANIA,RO04BTRL00601201A77931XX,Romania,corinah10bn@yahoo.com,Juga Agota,RO046,0740893638
Balan Rodica,-,,RO093,"str Pincipala nr.124, Unirea",Bistrita,Bistrita-Nasaud,,,Romania,balanrodica57@yahoo.com,Juga Agota,RO046,0746773993
Pusca Katalin,-,,RO094,"cart. Frumoasa bl.12A, ap.30",Tarnaveni,Mures,,,Romania,puscakatalin@yahoo.com,Pop Ioana Simona,RO047,+4915123381208
Barabas Stefan,-,,RO095,"Cart. 1 Decembrie 1918, bl. U4, ap. 10",Tarnaveni,Mures,,,Romania,barabasstefy@yahoo.com,Pop Ioana Simona,RO047,+393345343588
Danciu Adina Stefania,-,,RO096,Str,Nazna,Mures,RAIFFEISEN BANK,RO69RZBR0000060017169121,Romania,adinastefania@yahoo.com,Tocaciu Maria,RO049,0751474638
Simon Ghizela,-,,RO097,Str. Gheorghe Doja nr. 25,Tasnad,Satu Mare,,,Romania,simongizella52@gmail.com,Imre Andrea,RO050,0745487995
Fazakas Istvan Zsolt,-,,RO098,"Str. Frumoasa, nr. 48",Tarnaveni,Mures,,,Romania,fisti92@gmail.com,Imre Andrea,RO050,0756398096
Cimpean Maria,-,,RO099,"str Principala nr.33, Paucisoara",com. Ganesti,Mures,Banca Transilvania,RO02BTRL02701201L65904XX,Romania,mariacimpean@ymail.com,Serbu Ildiko,RO053,0744536437
Damian Monica,-,,RO100,str Principala nr.73,Cornesti,Cluj,,,Romania,damianmonica09@gmail.com,Serbu Ildiko,RO053,0744505178
BOLDEA CRISTIAN,-,,RO101,"Bld. Nicolae Titulescu, Bl. I4, nr. 24, Sc. 1, ap.22, cod 200219",Craiova,Dolj,BANCA TRANSILVANIA,RO02BTRLRONCRT0335167601,Romania,cristian.boldea@gmail.com,SMARANDA SILVICA,RO055,0770842612
Vasile Carmen,-,,RO102,"Str. Ion Tuculescu nr.13, bl. V6, ap.15",Craiova,Dolj,,,Romania,carmenvasile4@gmail.com,Vasile Marin,RO072,0751192691
Papp Marta,-,,RO103,Str. Sandulesti nr. 114 b,Turda,Cluj,,,Romania,pappmrt@gmail.com,Papp Gyorgy,RO081,0745660775
Lupas Angela,-,,RO104,Str. Principala nr.607,Gil?u,Cluj,Banca Transilvania,RO72BTRLRONCRT0137268202,Romania,angelalupas@yahoo.com,Szanto Szabolcs Bela,RO085,0751165999
ANDRITOIU ANCA - ROXANA,-,,RO105,"Str. Andrei Muresanu, nr.8,sc. B, ap.29",Bistrita,Bistrita-Nasaud,BANCA TRANSILVANIA,RO14BTRL00601201J62939XX,Romania,anca.andritoiu@gmail.com,Herinean Corina,RO092,0741951566
Cotoi Mihaela Adriana,-,,RO106,"str. T. Vladimirescu bl.10, sc.B, ap.18",Bistrita,Bistrita-Nasaud,,,Romania,pisimed@yahoo.com,Herinean Corina,RO092,0746109309
Ionascu Monica,-,,RO107,Str.Dumbravei nr.6 sc.C ap.27,Bistrita,Bistrita-Nasaud,BANCA TRANSILVANIA,RO46BTRL00601201A15573XX,Romania,monica.ionascu@gmail.com,Herinean Corina,RO092,0726367706
Ciuta Livia,-,,RO108,"str. Granicerillor, bl.12, sc.B, ap. 3",Bistrita,Bistrita-Nasaud,BANCA TRANSILVANIA,RO12BTRLRONCRT0415487301,Romania,liviaciuta@yahoo.com,Herinean Corina,RO092,0740073578
Burghiu Andrei,-,,RO109,"str. Bucinului, bl.10, ap.10",Tg.Mures,Mures,,,Romania,burghiu.andrest89@gmail.com,Herinean Corina,RO092,0740056677
Birsan Georgeta,-,,RO110,"cartier Zorilor nr.2, Bl H, ap 10",Tarnaveni,Mures,BANCA TRANSILVANIA,RO81BTRL03301201H09255XX,Romania,birsangeorgeta6@gmail.com,Cimpean Maria,RO099,0753254005
Moldovan Monica,-,,RO111,"Aleea Garii Bl. 1H, Ap. 17",Tarnaveni,Mures,,,Romania,moldovanmonica3@yahoo.ro,Cimpean Maria,RO099,0749626045
Cherestes Maria,-,,RO112,"Cart. Zorilor nr. 2, Bl. B, Ap. 5",Tarnaveni,Mures,,,Romania,maria_cimpean@yahoo.com,Cimpean Maria,RO099,0746082687
Florea Constantin,-,,RO113,"Str. Imparatul Traian nr.227, bl.M38, sc.1, et.2, ap.9",Craiova,Dolj,BANCA TRANSILVANIA,RO04BTRLRONCRT0109065803,Romania,constantinflorea14@yahoo.com,Lupas Angela,RO104,0744507770
Muntean Viorica,-,,RO114,Str. Principala nr.21,Savadisla,Cluj,,,Romania,vio_vica@yahoo.com,Lupas Angela,RO104,0740520510
CHIRIGIU LIVIU,-,,RO115,Str. lt.Tudor Miertoiu nr. 40,CARCEA,Dolj,Banca Transilvania,RO32BTRL01701201407263XX,Romania,liviu.chirigiu@gmail.com,Florea Constantin,RO113,0722763166
Radu Lidia-Aurora,-,,RO116,"STR. GENERAL DRAGALINA, NR. 57, AP. 1",CRAIOVA,Dolj,ING Bank,RO37INGB0000999900313167,Romania,lidia.radu@gelias.ro,Florea Constantin,RO113,0743144133
Oprea Mioara-Madalina,-,,RO117,"str. Nanterre, nr. 79, bl. I2, sc. 2, et. 1, ap. 4",CRAIOVA,Dolj,UNICREDIT BANK SA,RO49BACX0000000729114000,Romania,oprea.madalina@yahoo.com,Florea Constantin,RO113,0722564180
Constantin Clara-Maria,-,,RO118,"str. Nicolae Iorga, nr.21, sect. 1",Bucuresti,Bucuresti,,,Romania,clara.constantin030@yahoo.com,Florea Constantin,RO113,0762669080
Fancsali Olga Maria,-,,RO119,Str. Tirnavei nr.17 ap.9 cp 545400,Sighisoara,Mures,BANCA TRANSILVANIA,RO56BTRL02701201P41574XX,Romania,olgafancsali@yahoo.com,Gyorfi Erika,RO001,0763621638
Ciorbea Valentin Victor,-,,RO120,Str. Marasesti nr. 48,Aiud,Alba,,,Romania,amihai509@yahoo.com,Tocaciu Maria,RO049,0745492494
Veres Liliana,-,,RO121,"str. Gen.Grigore Balan, nr.15",Bistrita,Bistrita-Nasaud,,,Romania,lili_veres@yahoo.com,Herinean Corina,RO092,0748650082
Nutiu Emilian Vasile,-,,RO122,"str. Pietrosu, bl.9, sc.F, ap.9",Bistrita,Bistrita-Nasaud,,,Romania,nutiuemilian77@gmail.com,Herinean Corina,RO092,0747063434
Scurtu Petrut,-,,RO123,"Str. Principala nr.265, sat Zigoreni",Com. Baiculesti,Arges,,,Romania,scurtu.petrut7795@gmail.com,Bocanu Ion Liviu,RO031,0751794339
Tutunaru Petre Adrian,-,,RO124,"Ale. Magnoliilor nr 4, Bl 9, sc1, Ap 16",Motru,Gorj,,,Romania,tutunaru.adrian@yahoo.ro,Parseghian Constantin,RO008,0765285952
Bujor Marian,-,,RO125,"Str.Basarabia, NR.3, Bl. F2, Sc.1, AP. 3, CP 200056",Craiova,Dolj,BANCA TRANSILVANIA,RO07BTRLRONCRT0351043501,Romania,bujormcashbro@gmail.com,Botescu Adrian,RO025,0722642892
Lazar Radu,-,,RO126,"Str. Donati nr 109, bl P2, ap.16",Cluj-Napoca,Cluj,BANCA TRANSILVANIA,RO29BTRL01301201E40214XX,Romania,pr.radu777@gmail.com,Kolozsvari Alexandru,RO041,0785292901
Lazar Titiana,-,,RO127,"Str. Donati nr 109, bl P2, ap.16",Cluj-Napoca,Cluj,,,Romania,titiana.lazar@yahoo.com,Lazar Radu,RO126,0742361445
Lazar Mihai,-,,RO128,"Str. Donati nr 109, bl P2, ap.16",Cluj-Napoca,Cluj,,,Romania,zetax14@yahoo.com,Lazar Radu,RO126,0742548058
Serban Rodica,-,,RO129,"Str. Donati, nr 109, bl P2, ap.16",Cluj-Napoca,Cluj,,,Romania,serbanrodicaaurelia@yahoo.com,Lazar Radu,RO126,0755437167
Mezei Emilia,-,,RO130,"Str. Traian Lalescu, nr. 8, ap.4, bl PC 58",Oradea,Bihor,,,Romania,emiliamezei2020@gmail.com,Lazar Radu,RO126,0720609303
Cirnat Eugen,-,,RO131,"Str. Rozelor nr.8, Bl.8, sc.A, ap.3",Cugir,Alba,,,Romania,eugencirnat.64@yahoo.com,Tocaciu Maria,RO049,0729909014
Nastase Nicolae,-,,RO132,"Str. Soimilor nr 102, Bl C, et 2, ap 10",Tarnaveni,Mures,BRD - GROUPE SOCIETE GENERALE,RO18BRDE270SV27848732700,Romania,nicu2247n@yahoo.com,Imre Andrea,RO050,0753737096
Boar Mioara,-,,RO133,"Soimilor nr. 102, sc. B, ap. 37",Tarnaveni,Tarnaveni,,,Romania,boarmioara@yahoo.com,Nastase Nicolae,RO132,0770735195
Jenei Rolland,-,,RO134,"Aleea Covasna nr.11 , ap.3",Targu Mures,Mures,,,Romania,jeneiroli@gmail.hu,Jenei Edmond,RO021,0755237049
Lorincz Robert,-,,RO135,"Str. Muller Laszlo nr.23, sc. A, et.2, ap.10",Miercurea Ciuc,Harghita,,,Romania,lorincz_rrobert_97@yahoo.com,Jenei Rolland,RO134,0729975281
Dobos Irma,-,,RO136,"Bld. 1 Decembrie 1918, nr. 144, ap.20",Targu Mures,Mures,,,Romania,dobosirmuska@gmail.com,Jenei Edmond,RO021,0770466540
Magos Annamaria,-,,RO137,"P-ta Garii nr.2/A , ap.17",Targu Mures,Mures,,,Romania,magos_annamaria@yahoo.com,Jenei Edmond,RO021,0745316792
Poulain Magdolna Lorincz,-,,RO138,"Str Alea Covasna Nr 11 Ap 3,  cod postal 540503",Tg Mures,Mures,,,Romania,maggilorincz989@gmail.com,Jenei Miklos Csaba,RO004,0033678620381
Fazakas Judith,-,,RO139,Str Frumoasa nr. 48,Tarnaveni,Mures,,,Romania,f_judith67@yahoo.com,Fazakas Istvan Zsolt,RO098,0743313264
Fazakas Attila,-,,RO140,"Str. Zorilor nr. 2, bl. E, ap. 4",Tarnaveni,Mures,,,Romania,fazyboy88@yahoo.com,Fazakas Istvan Zsolt,RO098,0754465523
Timaru Carina,-,,RO141,Str. Frumoasa nr. 48,Tarnaveni,Mures,,,Romania,timarucarina@yahoo.com,Fazakas Istvan Zsolt,RO098,0748844121
Fazakas Annamaria,-,,RO142,"Str. Zorilor nr. 2, bl. E, ap. 4",Tarnaveni,Mures,,,Romania,annacska_1914@yahoo.com,Fazakas Attila,RO140,0751643096
Fazakas Vencel,-,,RO143,Str Frumoasa nr. 48,Tarnaveni,Mures,,,Romania,fav_62@yahoo.com,Fazakas Judith,RO139,0745394917
Udvar Ana,-,,RO144,str. Frumoasa nr.48,Tarnaveni,Mures,,,Romania,udvaranus@gmail.com,Fazakas Judith,RO139,0753408771
Cimpean Gheorghe,-,,RO145,str. Principala nr.33,Paucisoara,Mures,,,Romania,gheorghecimpean1@gmail.com,Cimpean Maria,RO099,0744338287
Crisan Monica,-,,RO146,"Str. 1 Decembrie 1918, bl.26,sc A, ap.5",Tarnaveni,Mures,,,Romania,monica.mcrisan@gmail.com,Petru Adrian Ioan,RO052,0744794569
Popescu Mihaela Jeni,-,,RO147,"str. Carpati 3, bl.33 G1, ap.6, et.2",Ploiesti,Prahova,,,Romania,mihaela.popescu221@gmail.com,Birsan Georgeta,RO110,0724592109
FUMURESCU BEATRICE,-,,RO148,"Str. Imparatul Traian, Nr.54, Cod postal 200530",Craiova,Dolj,,,Romania,beatricefumurescu@yahoo.com,Ivascu Cristina,RO035,0744549006
Juga Honorata Julia,-,,RO149,Str. Scolii nr. 12,Tarnaveni,Mures,,,Romania,juga.agota@gmail.com,Juga Agota,RO046,0743909375
PAUN GEORGETA-DOINA,-,,RO150,"str. Stadionului, nr.6C, bl. I 5, sc. 1, ap. 4",FILIASI,DOLJ,,,Romania,doina_paun@yahoo.com,Florea Constantin,RO113,0751253000
STOIAN IOANA,-,,RO151,"str. Independentei, nr. 18, bl. 12, sc. A, ap. 9",CRAIOVA,DOLJ,,,Romania,ioana_stoian73@yahoo.com,Florea Constantin,RO113,0765801616
Lupas Raul,-,,RO152,Str. Principala nr.607,Gilau,Cluj,,,Romania,raullupas@yahoo.com,Lupas Angela,RO104,0728137777
MOLIN MIRCEA EMANUEL,-,,RO153,"Calea Caransebesului Bl.19 Sc.A Ap.23, cp 320170",RESITA,Caras-Severin,,,Romania,mircea_molin@yahoo.com,MOLIN MIRCEA,RO013,0726946691
GUI MONICA,-,,RO154,"Bulevardul Muncii ,Bl. 12 ,Sc. F , Ap. 13",RESITA,Caras-Severin,,,Romania,guimonica71@gmail.com,MOLIN MIRCEA,RO013,0745901947
Balus Vivi-Lucretia,-,,RO155,"Str. Fagaras, Nr.6, Bl. F11, Sc.1, Ap.5",Craiova,Dolj,,,Romania,vivilucretiabalus@gmail.com,Botescu Amalia,RO056,0726202349
Urian Ioan Mugurel,-,,RO156,Nr. 319 A,Unirea,Bistrita-Nasaud,,,Romania,urianioanmugurel@yahoo.com,Balan Rodica,RO093,0745516142
GHITA ADINA-MARIANA,-,,RO157,-,Bucuresti,Bucuresti,,,Romania,ghitadina@gmail.com,Tamas Marius,RO002,0723684057
Iakab Adrian,-,,RO158,-,Medias,Sibiu,,,Romania,jacko67_2000@yahoo.com,Binder Julia-Brigitte,RO174,0771750715
GROSULEAC ELENA,-,,RO159,"Calea Caransebesului, Bl.19, Sc. A, Ap.18",RESITA,Caras-Severin,,,Romania,egrosuleac@gmail.com,MOLIN MIRCEA EMANUEL,RO153,0770478765
Vanusca Ion,-,,RO160,"Str. Toporasi nr.25, bl.312, sc.,1, et.5, ap.17",Craiova,Dolj,,,Romania,ionvanusca@gmail.com,Stefanescu Carmen Cristina,RO037,0740224582
Seles Dima Adi,-,,RO161,Str. Principala nr.66,Belis,Cluj,,,Romania,adi_seles@yahoo.com,Tamas Marius,RO002,0747630230
Mihai Marius Gabriel,-,,RO162,Str. Tudor Vladimirescu nr.35,CRAIOVA,Dolj,,,Romania,mihaimarius68@yahoo.com,Ungureanu Daniel Catalin,RO024,0744203137
Hariton Patricia Elena,-,,RO163,"Str. Gheorghe Spacu nr.31, et.1, ap.5, sector 6",Bucuresti,Bucuresti,,,Romania,patricia.georgescu20@yahoo.com,Ghealdir Nutu-Ovidiu,RO063,0762616054
Puczi Sigismund,-,,RO164,"cart. Viitorului 13 L, ap.23",Tarnaveni,Mures,,,Romania,puczisigismund1@gmail.com,Petru Adrian Ioan,RO052,0745563360
Birsan Paul Stelian,-,,RO165,"Str. Zorilor nr.2, Bl. H, Ap.10",Tarnaveni,Mures,,,Romania,steliandelacetate@yahoo.com,Birsan Georgeta,RO110,0743161236
Serbu Ioan,-,,RO166,"Str. 1 Decembrie 1918, 46 N, sc. A, ap. 21",Tarnaveni,Mures,,,Romania,inteserbu1@gmail.com,Serbu Ildiko,RO053,0757542854
Nechita Alexandrina,-,,RO167,"Str. Bucium, nr. 25, ap.27",Cluj-Napoca,Cluj,,,Romania,alexandrina.nechita.25@gmail.com,Lazar Radu,RO126,0754860829
Popescu Maria-Alexandra,-,,RO168,Strada Calea Calarasi nr. 241,Bucuresti,Bucuresti,,,Romania,popescumralexandra@yahoo.com,Bujor Marian,RO125,0728708375
Petrea Ulesan,-,,RO169,Str. Principala nr.291,Farau,Alba,,,Romania,petreaulesan@gmail.com,Serbu Ildiko,RO053,0744623865
Paraschiv Mihai,-,,RO170,Strada Gen Magheru nr 14 B,Craiova,Dolj,,,Romania,paraschivmihai22@gmail.com,Parseghian Constantin,RO008,0745525944
Craciun Valentin,-,,RO171,"Str. Fantanele nr. 63-65, bl. B9, sc. 3, ap 75",CLUJ-NAPOCA,Cluj,,,Romania,valentincraciun@yahoo.com,Serban Rodica,RO129,0770495997
Mihai Stefania-Alina,-,,RO172,"Str. Sold. Stefan Constantin nr.19B, et2, ap.16, Sect. 3",Bucuresti,Bucuresti,,,Romania,b_alina_s@yahoo.com,Mihai Iustin,RO067,0761133742
Barbulescu Radu,-,,RO173,"BD. TIMISOARA  NR. 19, BL. C6, SC.2, ETJ. 4, AP.53, SECTOR  6,  cp 061305",Bucuresti,Bucuresti,,,Romania,roddy_60@yahoo.com,Diacov Emil,RO176,0729049987
Binder Julia-Brigitte,-,,RO174,str. Hotar Fukuschdorf nr. 1,Medias,Sibiu,,,Romania,binderjuliabrigitte@yahoo.com,Seles Dima Adi,RO161,0756509701
Calomfirescu Doina,-,,RO175,"Blvd. C-tin Brancoveanu 73-79, sc 2, et 3, ap 50, Sector 4",Bucuresti,Bucuresti,,,Romania,doina_hd_cf@yahoo.com,Voican Tatiana,RO010,0771459734
Diacov Emil,-,,RO176,"BD. TIMISOARA  NR. 19, BL. C6, SC.3,  ETJ.6,  AP.100,   SECTOR  6",Bucuresti,Bucuresti,,,Romania,emil_diacov@yahoo.com,Tamas Marius,RO002,0720279340
Gecasan Cristian Silviu,-,,RO177,"Str.Principala nr.163, sat Dirlos",Com. Dirlos,Sibiu,,,Romania,cristy_gecs@yahoo.com,Binder Julia-Brigitte,RO174,0740072926
Horsia Valer Calin,-,,RO178,"Str. Turda nr.12, bl.23, sc.C, et.3, ap.13, cp 551098",Medias,Sibiu,,,Romania,vhorsia@yahoo.com,Binder Julia-Brigitte,RO174,0745593349
Iason Serghei,-,,RO179,"Ale. Barajul Sadului Nr. 3-5,
Bl. N12-N13, Ap. 79, sect.3",Bucuresti,Bucuresti,,,Romania,s_iason@yahoo.co.uk,Stan Constanta Sorina,RO032,0727780435
Jarnea Madalina,-,,RO180,"Str. Serg.Maj. Cara Anghel nr.15, bl.C49, sc.A, ap.9, sect.6",Bucuresti,Bucuresti,,,Romania,florina1502@yahoo.com,Stan Constanta Sorina,RO032,0734438950
Serban  Viorel,-,,RO181,-,Ploiesti,Prahova,,,Romania,viorel.serban@publicas.ro,Tamas Marius,RO002,0729937102
Velciu Alexandru,-,,RO182,"Calea Plevnei, nr.94, bl.10D2, sc.1, ap.23",Bucuresti,Bucuresti,,,Romania,alxvelciu@yahoo.com,Tamas Marius,RO002,0727302100
Barbu Georgeta,-,,RO183,"Str. Cosmos, nr3, ap. 25",Brasov,Brasov,,,Romania,maibarbu@yahoo.com,Medicina Vibrationala SRL,RO009,0721475122
Bujor Vasilica,-,,RO184,"Strada Basarabia, Nr.3, Bloc F2, Sc.1, Ap.3",Craiova,Dolj,,,Romania,vasilicabcashbro@gmail.com,Bujor Marian,RO125,0721802500
Cubici Maria,-,,RO185,"Str. Jean Monnet nr. 3, sc. A, ap.1",Bucuresti,Bucuresti,,,Romania,vallq@hotmail.com,Cubici Valentin,RO030,0745777503
